C:\Users\nikit\OneDrive\Escritorio\mongodbquarkus\mongodbquarkus\src\main\java\quarkus\Book.java
C:\Users\nikit\OneDrive\Escritorio\mongodbquarkus\mongodbquarkus\src\main\java\quarkus\BookRepository.java
C:\Users\nikit\OneDrive\Escritorio\mongodbquarkus\mongodbquarkus\src\main\java\quarkus\BookResource.java
